date,currency,tenor_str,tenor_float,rate
2019-05-14,USD,1M,0.0833333333333333,0.024112
2019-05-14,USD,3M,0.25,0.024022
2019-05-14,USD,6M,0.5,0.024259
2019-05-14,USD,1Y,1.0,0.023378
2019-05-14,USD,2Y,2.0,0.021965
2019-05-14,USD,3Y,3.0,0.021601
2019-05-14,USD,5Y,5.0,0.021964
2019-05-14,USD,7Y,7.0,0.022956
2019-05-14,USD,10Y,10.0,0.024157
2019-05-14,USD,30Y,30.0,0.028528
