underlying,symbol,date,expiration,strike,call_put,style,bid,ask,mean_price,settlement,volume,open_interest,eu_price,us_price,iv_exchange,iv,id
A,A     190517C00042500,2019-05-14,2019-05-17,42.5,C,A,32.95,34.75,33.85,0.0,0.0,0.0,33.811132977965805,33.85,0.6987,0.0034134230117109335,1
A,A     190517P00042500,2019-05-14,2019-05-17,42.5,P,A,0.0,0.18,0.0,0.0,0.0,1.0,0.0,0.0,0.778,0.001,2
A,A     190517C00045000,2019-05-14,2019-05-17,45.0,C,A,30.5,32.4,31.45,0.0,0.0,0.0,31.31162804187802,31.45,0.6987,0.0031300147710079528,3
A,A     190517P00045000,2019-05-14,2019-05-17,45.0,P,A,0.0,0.05,0.0,0.0,0.0,0.0,0.0,0.0,0.778,0.001,4
A,A     190517C00047500,2019-05-14,2019-05-17,47.5,C,A,27.95,29.5,28.725,0.0,0.0,0.0,,28.725,0.6987,,5
A,A     190517P00047500,2019-05-14,2019-05-17,47.5,P,A,0.0,0.14,0.0,0.0,0.0,4.0,0.0,0.0,0.778,0.001,6
A,A     190517C00050000,2019-05-14,2019-05-17,50.0,C,A,25.45,27.3,26.375,0.0,0.0,0.0,26.312618169702453,26.375,0.6987,0.003210256900979077,7
A,A     190517P00050000,2019-05-14,2019-05-17,50.0,P,A,0.0,0.11,0.0,0.0,0.0,18.0,0.0,0.0,0.778,0.001,8
A,A     190517C00055000,2019-05-14,2019-05-17,55.0,C,A,20.35,22.05,21.2,0.0,0.0,20.0,,21.2,0.6987,,9
A,A     190517P00055000,2019-05-14,2019-05-17,55.0,P,A,0.0,0.18,0.0,0.0,0.0,7.0,0.0,0.0,0.778,0.001,10
A,A     190517C00057500,2019-05-14,2019-05-17,57.5,C,A,18.25,19.35,18.8,0.0,0.0,8.0,,18.8,0.6987,,11
A,A     190517P00057500,2019-05-14,2019-05-17,57.5,P,A,0.0,0.18,0.0,0.0,0.0,7.0,0.0,0.0,0.778,0.001,12
A,A     190517C00060000,2019-05-14,2019-05-17,60.0,C,A,15.7,16.8,16.25,0.0,0.0,3.0,,16.25,0.6987,,13
A,A     190517P00060000,2019-05-14,2019-05-17,60.0,P,A,0.0,0.1,0.0,0.0,0.0,511.0,0.0,0.0,0.778,0.001,14
A,A     190517C00062500,2019-05-14,2019-05-17,62.5,C,A,13.3,14.25,13.775,0.0,0.0,4.0,,13.775,0.6987,,15
A,A     190517P00062500,2019-05-14,2019-05-17,62.5,P,A,0.0,0.04,0.0,0.0,0.0,185.0,0.0,0.0,0.778,0.001,16
A,A     190517C00065000,2019-05-14,2019-05-17,65.0,C,A,11.15,11.5,11.325,0.0,9.0,9.0,,11.325,0.6987,,17
A,A     190517P00065000,2019-05-14,2019-05-17,65.0,P,A,0.02,0.05,0.035,0.0,77.0,74.0,0.03637121989136393,0.035,0.778,0.8489526603249171,18
A,A     190517C00067500,2019-05-14,2019-05-17,67.5,C,A,8.15,9.55,8.85,0.0,0.0,149.0,,8.85,0.6987,,19
A,A     190517P00067500,2019-05-14,2019-05-17,67.5,P,A,0.08,0.09,0.085,0.0,138.0,90.0,0.08691603526619407,0.085,0.778,0.783810389746994,20
A,A     190517C00070000,2019-05-14,2019-05-17,70.0,C,A,6.5,6.65,6.575,0.0,2.0,115.0,,6.575,0.7726,,21
A,A     190517P00070000,2019-05-14,2019-05-17,70.0,P,A,0.23,0.25,0.24,0.0,357.0,559.0,0.23782312682204573,0.24,0.7472,0.7479700410421091,22
A,A     190517C00072500,2019-05-14,2019-05-17,72.5,C,A,4.3,4.45,4.375,0.0,8.0,142.0,,4.375,0.7035,,23
A,A     190517P00072500,2019-05-14,2019-05-17,72.5,P,A,0.56,0.59,0.575,0.0,215.0,319.0,0.5645610523351259,0.575,0.7059,0.7033401737944956,24
A,A     190517C00075000,2019-05-14,2019-05-17,75.0,C,A,2.51,2.56,2.535,0.0,130.0,306.0,,2.535,0.6598,,25
A,A     190517P00075000,2019-05-14,2019-05-17,75.0,P,A,1.19,1.24,1.215,0.0,822.0,1318.0,1.1974064550874834,1.215,0.6537,0.6506164021337382,26
A,A     190517C00077500,2019-05-14,2019-05-17,77.5,C,A,1.15,1.18,1.165,0.0,535.0,910.0,1.1616923925070808,1.165,0.6087,0.6069638999439775,27
A,A     190517P00077500,2019-05-14,2019-05-17,77.5,P,A,2.32,2.38,2.35,0.0,288.0,334.0,2.3058482235525064,2.35,0.6045,0.5928146650643495,28
A,A     190517C00080000,2019-05-14,2019-05-17,80.0,C,A,0.41,0.43,0.42,0.0,541.0,516.0,0.4168216616698666,0.42,0.5826,0.5809431702911824,29
A,A     190517P00080000,2019-05-14,2019-05-17,80.0,P,A,4.05,4.2,4.125,0.0,79.0,224.0,4.018061269721269,4.125,0.5873,0.5371508738161856,30
A,A     190517C00082500,2019-05-14,2019-05-17,82.5,C,A,0.13,0.14,0.135,0.0,264.0,350.0,0.13482655511883035,0.135,0.5876,0.5877217112990812,31
A,A     190517P00082500,2019-05-14,2019-05-17,82.5,P,A,5.95,6.7,6.325,0.0,0.0,78.0,,6.325,0.5799,,32
A,A     190517C00085000,2019-05-14,2019-05-17,85.0,C,A,0.05,0.06,0.055,0.0,75.0,494.0,0.05678573224164843,0.055,0.6344,0.6384534640131104,33
A,A     190517P00085000,2019-05-14,2019-05-17,85.0,P,A,8.25,9.6,8.925,0.0,8.0,10.0,,8.925,0.8505,,34
A,A     190517C00087500,2019-05-14,2019-05-17,87.5,C,A,0.02,0.1,0.06,0.0,16.0,185.0,0.06352871402306552,0.06,0.6344,0.7910837276972582,35
A,A     190517P00087500,2019-05-14,2019-05-17,87.5,P,A,10.55,12.15,11.35,0.0,0.0,0.0,,11.35,0.8505,,36
A,A     190517C00090000,2019-05-14,2019-05-17,90.0,C,A,0.0,0.07,0.0,0.0,0.0,45.0,0.0,0.0,0.6344,0.001,37
A,A     190517P00090000,2019-05-14,2019-05-17,90.0,P,A,13.05,14.55,13.8,0.0,0.0,0.0,,13.8,0.8505,,38
A,A     190517C00095000,2019-05-14,2019-05-17,95.0,C,A,0.0,0.06,0.0,0.0,0.0,15.0,0.0,0.0,0.6344,0.001,39
A,A     190517P00095000,2019-05-14,2019-05-17,95.0,P,A,18.25,19.3,18.775,0.0,0.0,0.0,,18.775,0.8505,,40
A,A     190517C00100000,2019-05-14,2019-05-17,100.0,C,A,0.0,0.07,0.0,0.0,0.0,43.0,0.0,0.0,0.6344,0.001,41
A,A     190517P00100000,2019-05-14,2019-05-17,100.0,P,A,23.1,24.4,23.75,0.0,0.0,0.0,,23.75,0.8505,,42
A,A     190621C00060000,2019-05-14,2019-06-21,60.0,C,A,16.45,16.75,16.6,0.0,1.0,0.0,16.606023238018494,16.6,0.4318,0.4362287023561233,43
A,A     190621P00060000,2019-05-14,2019-06-21,60.0,P,A,0.11,0.13,0.12,0.0,2.0,242.0,0.1212996056167365,0.12,0.4121,0.4130018161384558,44
A,A     190621C00065000,2019-05-14,2019-06-21,65.0,C,A,11.65,12.25,11.95,0.0,0.0,2.0,11.953756808661051,11.95,0.4105,0.4120916804704254,45
A,A     190621P00065000,2019-05-14,2019-06-21,65.0,P,A,0.31,0.33,0.32,0.0,27.0,47.0,0.3163740220095411,0.32,0.3661,0.36524364462818015,46
A,A     190621C00067500,2019-05-14,2019-06-21,67.5,C,A,9.4,9.6,9.5,0.0,5.0,8.0,9.497668979617597,9.5,0.3476,0.34776997907471924,47
A,A     190621P00067500,2019-05-14,2019-06-21,67.5,P,A,0.52,0.55,0.535,0.0,105.0,49.0,0.5290453220038128,0.535,0.3473,0.34634501255986905,48
A,A     190621C00070000,2019-05-14,2019-06-21,70.0,C,A,7.1,7.45,7.275,0.0,0.0,3.0,7.275118343823848,7.275,0.3182,0.31872097688809115,49
A,A     190621P00070000,2019-05-14,2019-06-21,70.0,P,A,0.87,0.91,0.89,0.0,35.0,105.0,0.8775369129720911,0.89,0.331,0.32944891517853414,50
A,A     190621C00072500,2019-05-14,2019-06-21,72.5,C,A,5.4,5.5,5.45,0.0,0.0,20.0,5.4387579996676925,5.45,0.32,0.3190442219733021,51
A,A     190621P00072500,2019-05-14,2019-06-21,72.5,P,A,1.43,1.46,1.445,0.0,37.0,40.0,1.4204444400035945,1.445,0.3161,0.31372929370818864,52
A,A     190621C00075000,2019-05-14,2019-06-21,75.0,C,A,3.7,3.8,3.75,0.0,43.0,64.0,3.7357062670663663,3.75,0.3033,0.30215971268290776,53
A,A     190621P00075000,2019-05-14,2019-06-21,75.0,P,A,2.25,2.29,2.27,0.0,35.0,36.0,2.230004890142389,2.27,0.3025,0.2994946293974099,54
A,A     190621C00077500,2019-05-14,2019-06-21,77.5,C,A,2.36,2.41,2.385,0.0,41.0,138.0,2.37743637573187,2.385,0.2895,0.2890618746156609,55
A,A     190621P00077500,2019-05-14,2019-06-21,77.5,P,A,3.35,3.45,3.4,0.0,21.0,69.0,3.3459536917579693,3.4,0.2881,0.28446860656873996,56
A,A     190621C00080000,2019-05-14,2019-06-21,80.0,C,A,1.36,1.39,1.375,0.0,30.0,317.0,1.3880298803665518,1.375,0.2771,0.2788460765708029,57
A,A     190621P00080000,2019-05-14,2019-06-21,80.0,P,A,4.85,5.1,4.975,0.0,0.0,26.0,4.89982672554508,4.975,0.2847,0.279371031437071,58
A,A     190621C00082500,2019-05-14,2019-06-21,82.5,C,A,0.7,0.72,0.71,0.0,92.0,722.0,0.7055687330685639,0.71,0.2666,0.26614599116073256,59
A,A     190621P00082500,2019-05-14,2019-06-21,82.5,P,A,6.7,6.9,6.8,0.0,20.0,4.0,6.642181745909864,6.8,0.273,0.2567016624381689,60
A,A     190621C00085000,2019-05-14,2019-06-21,85.0,C,A,0.32,0.33,0.325,0.0,105.0,220.0,0.3254890606225814,0.325,0.2577,0.25800754808847537,61
A,A     190621P00085000,2019-05-14,2019-06-21,85.0,P,A,8.5,9.35,8.925,0.0,0.0,0.0,,8.925,0.2645,,62
A,A     190621C00090000,2019-05-14,2019-06-21,90.0,C,A,0.0,0.1,0.0,0.0,1.0,4.0,0.0,0.0,0.2577,0.001,63
A,A     190621P00090000,2019-05-14,2019-06-21,90.0,P,A,13.3,14.35,13.825,0.0,0.0,0.0,,13.825,0.2645,,64
A,A     190621C00095000,2019-05-14,2019-06-21,95.0,C,A,0.01,0.04,0.025,0.0,0.0,0.0,0.02611580965376344,0.025,0.2577,0.2879362319249595,65
A,A     190621P00095000,2019-05-14,2019-06-21,95.0,P,A,18.25,19.5,18.875,0.0,0.0,0.0,,18.875,0.2645,,66
A,A     190621C00100000,2019-05-14,2019-06-21,100.0,C,A,0.0,0.04,0.0,0.0,0.0,1.0,0.0,0.0,0.2577,0.001,67
A,A     190621P00100000,2019-05-14,2019-06-21,100.0,P,A,23.1,24.35,23.725,0.0,0.0,0.0,,23.725,0.2645,,68
A,A     190621C00105000,2019-05-14,2019-06-21,105.0,C,A,0.0,0.04,0.0,0.0,0.0,0.0,0.0,0.0,0.2577,0.001,69
A,A     190621P00105000,2019-05-14,2019-06-21,105.0,P,A,28.05,29.5,28.775,0.0,0.0,0.0,,28.775,0.2645,,70
A,A     190621C00110000,2019-05-14,2019-06-21,110.0,C,A,0.0,0.04,0.0,0.0,0.0,0.0,0.0,0.0,0.2577,0.001,71
A,A     190621P00110000,2019-05-14,2019-06-21,110.0,P,A,33.1,34.25,33.675,0.0,0.0,0.0,,33.675,0.2645,,72
A,A     190816C00042500,2019-05-14,2019-08-16,42.5,C,A,32.2,35.4,33.8,0.0,0.0,0.0,,33.8,0.339,,73
A,A     190816P00042500,2019-05-14,2019-08-16,42.5,P,A,0.0,0.45,0.0,0.0,0.0,0.0,0.0,0.0,0.3762,0.001,74
A,A     190816C00045000,2019-05-14,2019-08-16,45.0,C,A,29.65,32.8,31.225,0.0,0.0,0.0,,31.225,0.339,,75
A,A     190816P00045000,2019-05-14,2019-08-16,45.0,P,A,0.0,0.43,0.0,0.0,0.0,0.0,0.0,0.0,0.3762,0.001,76
A,A     190816C00047500,2019-05-14,2019-08-16,47.5,C,A,27.85,30.1,28.975,0.0,0.0,0.0,,28.975,0.339,,77
A,A     190816P00047500,2019-05-14,2019-08-16,47.5,P,A,0.0,0.14,0.0,0.0,1.0,11.0,0.0,0.0,0.3762,0.001,78
A,A     190816C00050000,2019-05-14,2019-08-16,50.0,C,A,24.85,28.1,26.475,0.0,0.0,0.0,,26.475,0.339,,79
A,A     190816P00050000,2019-05-14,2019-08-16,50.0,P,A,0.05,0.17,0.11,0.0,0.0,24.0,0.11456553264970794,0.11,0.3762,0.4228852444409628,80
A,A     190816C00055000,2019-05-14,2019-08-16,55.0,C,A,19.9,23.3,21.6,0.0,0.0,0.0,,21.6,0.339,,81
A,A     190816P00055000,2019-05-14,2019-08-16,55.0,P,A,0.18,0.23,0.205,0.0,0.0,2.0,0.21204525502851268,0.205,0.3762,0.37874569528661967,82
A,A     190816C00057500,2019-05-14,2019-08-16,57.5,C,A,18.2,20.9,19.55,0.0,0.0,0.0,,19.55,0.4146,,83
A,A     190816P00057500,2019-05-14,2019-08-16,57.5,P,A,0.3,0.36,0.33,0.0,1.0,2.0,0.32991170188901875,0.33,0.368,0.36807539016528207,84
A,A     190816C00060000,2019-05-14,2019-08-16,60.0,C,A,15.95,18.35,17.15,0.0,0.0,1.0,,17.15,0.3801,,85
A,A     190816P00060000,2019-05-14,2019-08-16,60.0,P,A,0.42,0.48,0.45,0.0,1.0,4.0,0.4466769369851765,0.45,0.3478,0.34753352385961167,86
A,A     190816C00062500,2019-05-14,2019-08-16,62.5,C,A,14.2,15.4,14.8,0.0,0.0,0.0,,14.8,0.3506,,87
A,A     190816P00062500,2019-05-14,2019-08-16,62.5,P,A,0.61,0.68,0.645,0.0,0.0,11.0,0.6512802234912213,0.645,0.3329,0.3343896223013014,88
A,A     190816C00065000,2019-05-14,2019-08-16,65.0,C,A,11.6,12.95,12.275,0.0,0.0,4.0,,12.275,0.2953,,89
A,A     190816P00065000,2019-05-14,2019-08-16,65.0,P,A,0.93,0.96,0.945,0.0,10.0,289.0,0.930765335470455,0.945,0.3219,0.32100464763090725,90
A,A     190816C00067500,2019-05-14,2019-08-16,67.5,C,A,9.9,10.9,10.4,0.0,0.0,1.0,,10.4,0.3096,,91
A,A     190816P00067500,2019-05-14,2019-08-16,67.5,P,A,1.32,1.38,1.35,0.0,1.0,11.0,1.329070667988276,1.35,0.3105,0.3095677096021827,92
A,A     190816C00070000,2019-05-14,2019-08-16,70.0,C,A,8.4,8.6,8.5,0.0,2.0,145.0,,8.5,0.3023,,93
A,A     190816P00070000,2019-05-14,2019-08-16,70.0,P,A,1.87,1.92,1.895,0.0,1.0,230.0,1.8846354867618271,1.895,0.2996,0.3001443618256464,94
A,A     190816C00072500,2019-05-14,2019-08-16,72.5,C,A,6.65,6.85,6.75,0.0,12.0,36.0,,6.75,0.2934,,95
A,A     190816P00072500,2019-05-14,2019-08-16,72.5,P,A,2.54,2.69,2.615,0.0,0.0,454.0,2.592743560332677,2.615,0.2895,0.28961364532897954,96
A,A     190816C00075000,2019-05-14,2019-08-16,75.0,C,A,5.1,5.25,5.175,0.0,19.0,395.0,,5.175,0.2834,,97
A,A     190816P00075000,2019-05-14,2019-08-16,75.0,P,A,3.5,3.6,3.55,0.0,47.0,43.0,3.496556975624024,3.55,0.2809,0.27935492336437895,98
A,A     190816C00077500,2019-05-14,2019-08-16,77.5,C,A,3.8,3.9,3.85,0.0,34.0,84.0,3.8291749218963833,3.85,0.2754,0.27434809969134233,99
A,A     190816P00077500,2019-05-14,2019-08-16,77.5,P,A,4.7,4.75,4.725,0.0,16.0,72.0,4.646843702363485,4.725,0.273,0.2710901852270613,100
A,A     190816C00080000,2019-05-14,2019-08-16,80.0,C,A,2.71,2.76,2.735,0.0,17.0,194.0,2.720823427092816,2.735,0.2666,0.2659369722630732,101
A,A     190816P00080000,2019-05-14,2019-08-16,80.0,P,A,6.05,6.25,6.15,0.0,2.0,28.0,6.048330597087237,6.15,0.2666,0.26426488186678276,102
A,A     190816C00082500,2019-05-14,2019-08-16,82.5,C,A,1.84,1.89,1.865,0.0,17.0,274.0,1.863383189285361,1.865,0.2593,0.25927678509030727,103
A,A     190816P00082500,2019-05-14,2019-08-16,82.5,P,A,7.6,8.5,8.05,0.0,0.0,11.0,7.940400184522681,8.05,0.2783,0.27670985441984636,104
A,A     190816C00085000,2019-05-14,2019-08-16,85.0,C,A,1.19,1.24,1.215,0.0,29.0,774.0,1.2269320920758964,1.215,0.2524,0.2537095748820152,105
A,A     190816P00085000,2019-05-14,2019-08-16,85.0,P,A,9.15,10.45,9.8,0.0,0.0,1.0,9.640283556994428,9.8,0.2651,0.26146720254955613,106
A,A     190816C00087500,2019-05-14,2019-08-16,87.5,C,A,0.71,0.79,0.75,0.0,0.0,197.0,0.7634583510556602,0.75,0.2461,0.2476424596928493,107
A,A     190816P00087500,2019-05-14,2019-08-16,87.5,P,A,11.35,12.35,11.85,0.0,0.0,2.0,11.611088671180278,11.85,0.2612,0.2519998044948781,108
A,A     190816C00090000,2019-05-14,2019-08-16,90.0,C,A,0.42,0.49,0.455,0.0,0.0,154.0,0.4595870582149675,0.455,0.2425,0.24325256831175757,109
A,A     190816P00090000,2019-05-14,2019-08-16,90.0,P,A,13.25,15.45,14.35,0.0,0.0,11.0,14.09286074051421,14.35,0.2964,0.2855350508177357,110
A,A     190816C00095000,2019-05-14,2019-08-16,95.0,C,A,0.0,0.27,0.0,0.0,0.0,17.0,0.0,0.0,0.2425,0.001,111
A,A     190816P00095000,2019-05-14,2019-08-16,95.0,P,A,17.1,19.95,18.525,0.0,0.0,0.0,,18.525,0.2964,,112
A,A     191115C00050000,2019-05-14,2019-11-15,50.0,C,A,25.7,28.15,26.925,0.0,0.0,7.0,26.93314988831173,26.925,0.3219,0.4032457668215941,113
A,A     191115P00050000,2019-05-14,2019-11-15,50.0,P,A,0.25,0.53,0.39,0.0,0.0,60.0,0.3862799037796182,0.39,0.3674,0.37788673487013474,114
A,A     191115C00055000,2019-05-14,2019-11-15,55.0,C,A,21.15,23.15,22.15,0.0,0.0,0.0,22.144252788740435,22.15,0.3219,0.35012665928037867,115
A,A     191115P00055000,2019-05-14,2019-11-15,55.0,P,A,0.57,1.01,0.79,0.0,0.0,2.0,0.7804879358466801,0.79,0.3674,0.36462872552284864,116
A,A     191115C00060000,2019-05-14,2019-11-15,60.0,C,A,17.0,18.25,17.625,0.0,0.0,5.0,17.6168720107281,17.625,0.3016,0.3197224901939835,117
A,A     191115P00060000,2019-05-14,2019-11-15,60.0,P,A,1.07,1.35,1.21,0.0,11.0,327.0,1.1903716198570657,1.21,0.3336,0.32993030232889514,118
A,A     191115C00065000,2019-05-14,2019-11-15,65.0,C,A,13.2,14.5,13.85,0.0,0.0,1.0,13.83178711143318,13.85,0.315,0.3254355701897206,119
A,A     191115P00065000,2019-05-14,2019-11-15,65.0,P,A,1.76,2.24,2.0,0.0,0.0,8.0,1.9663586795764934,2.0,0.3117,0.307540273939109,120
A,A     191115C00070000,2019-05-14,2019-11-15,70.0,C,A,9.15,10.35,9.75,0.0,0.0,0.0,9.725951599394453,9.75,0.2749,0.28249040119057234,121
A,A     191115P00070000,2019-05-14,2019-11-15,70.0,P,A,2.78,3.55,3.165,0.0,0.0,5.0,3.1139583046405335,3.165,0.2896,0.2849922039993386,122
A,A     191115C00072500,2019-05-14,2019-11-15,72.5,C,A,7.65,8.6,8.125,0.0,0.0,0.0,8.12395869697948,8.125,0.2695,0.2771984545678299,123
A,A     191115P00072500,2019-05-14,2019-11-15,72.5,P,A,3.65,4.3,3.975,0.0,0.0,11.0,3.932571160840367,3.975,0.2808,0.2770614926331546,124
A,A     191115C00075000,2019-05-14,2019-11-15,75.0,C,A,6.35,7.05,6.7,0.0,4.0,6.0,6.686743183914902,6.7,0.2664,0.27238486384452326,125
A,A     191115P00075000,2019-05-14,2019-11-15,75.0,P,A,4.75,5.15,4.95,0.0,0.0,81.0,4.884571967046771,4.95,0.2731,0.2684384710745905,126
A,A     191115C00077500,2019-05-14,2019-11-15,77.5,C,A,5.1,5.8,5.45,0.0,7.0,0.0,5.42609126415233,5.45,0.2638,0.26826959484433704,127
A,A     191115P00077500,2019-05-14,2019-11-15,77.5,P,A,5.95,6.55,6.25,0.0,0.0,2.0,6.152312418962299,6.25,0.2734,0.2671504813313585,128
A,A     191115C00080000,2019-05-14,2019-11-15,80.0,C,A,4.1,4.55,4.325,0.0,3.0,9.0,4.345369009079458,4.325,0.259,0.2649474407026689,129
A,A     191115P00080000,2019-05-14,2019-11-15,80.0,P,A,6.95,7.9,7.425,0.0,0.0,2.0,7.3466874086911975,7.425,0.2596,0.254708659508691,130
A,A     191115C00082500,2019-05-14,2019-11-15,82.5,C,A,2.91,3.55,3.23,0.0,0.0,7.0,3.2091034943645482,3.23,0.2478,0.25122610382389643,131
A,A     191115P00082500,2019-05-14,2019-11-15,82.5,P,A,8.65,9.35,9.0,0.0,0.0,0.0,8.848149297184902,9.0,0.2566,0.24877406246859454,132
A,A     191115C00085000,2019-05-14,2019-11-15,85.0,C,A,2.02,2.92,2.47,0.0,0.0,3.0,2.4645717683845065,2.47,0.245,0.24868841496956057,133
A,A     191115P00085000,2019-05-14,2019-11-15,85.0,P,A,10.15,11.25,10.7,0.0,0.0,0.0,10.509794053703532,10.7,0.252,0.24272276924233663,134
A,A     191115C00087500,2019-05-14,2019-11-15,87.5,C,A,1.65,2.19,1.92,0.0,0.0,37.0,1.918272333976392,1.92,0.2462,0.2495617783076456,135
A,A     191115P00087500,2019-05-14,2019-11-15,87.5,P,A,11.95,13.55,12.75,0.0,0.0,0.0,12.526773213803429,12.75,0.2589,0.248432312995359,136
A,A     191115C00090000,2019-05-14,2019-11-15,90.0,C,A,1.21,1.68,1.445,0.0,0.0,14.0,1.43493750186681,1.445,0.2449,0.24743342423894393,137
A,A     191115P00090000,2019-05-14,2019-11-15,90.0,P,A,13.85,15.3,14.575,0.0,0.0,11.0,14.257084815713082,14.575,0.2441,0.22897095036751705,138
A,A     191115C00095000,2019-05-14,2019-11-15,95.0,C,A,0.48,0.93,0.705,0.0,1.0,3.0,0.7021126331141968,0.705,0.2353,0.23766284743866145,139
A,A     191115P00095000,2019-05-14,2019-11-15,95.0,P,A,18.2,19.7,18.95,0.0,0.0,1.0,,18.95,0.2364,,140
A,A     191115C00100000,2019-05-14,2019-11-15,100.0,C,A,0.3,0.52,0.41,0.0,1.0,1.0,0.4093727402100688,0.41,0.241,0.2432396069725979,141
A,A     191115P00100000,2019-05-14,2019-11-15,100.0,P,A,22.6,24.65,23.625,0.0,0.0,0.0,,23.625,0.241,,142
A,A     191115C00105000,2019-05-14,2019-11-15,105.0,C,A,0.0,0.45,0.0,0.0,0.0,0.0,0.0,0.0,0.241,0.001,143
A,A     191115P00105000,2019-05-14,2019-11-15,105.0,P,A,27.2,29.75,28.475,0.0,0.0,0.0,,28.475,0.241,,144
A,A     191115C00110000,2019-05-14,2019-11-15,110.0,C,A,0.0,0.31,0.0,0.0,0.0,0.0,0.0,0.0,0.241,0.001,145
A,A     191115P00110000,2019-05-14,2019-11-15,110.0,P,A,32.4,34.7,33.55,0.0,0.0,0.0,,33.55,0.241,,146
A,A     191115C00115000,2019-05-14,2019-11-15,115.0,C,A,0.0,0.37,0.0,0.0,0.0,0.0,0.0,0.0,0.241,0.001,147
A,A     191115P00115000,2019-05-14,2019-11-15,115.0,P,A,37.2,39.7,38.45,0.0,0.0,0.0,,38.45,0.241,,148
A,A     200117C00037500,2019-05-14,2020-01-17,37.5,C,A,38.25,40.0,39.125,0.0,0.0,0.0,39.130881354745725,39.125,0.3697,0.44217789367385335,149
A,A     200117P00037500,2019-05-14,2020-01-17,37.5,P,A,0.13,0.19,0.16,0.0,0.0,19.0,0.1659861404169107,0.16,0.4378,0.44000814906984226,150
A,A     200117C00040000,2019-05-14,2020-01-17,40.0,C,A,35.4,37.75,36.575,0.0,0.0,0.0,,36.575,0.4274,,151
A,A     200117P00040000,2019-05-14,2020-01-17,40.0,P,A,0.19,0.27,0.23,0.0,0.0,45.0,0.22988102773723537,0.23,0.4274,0.4270444682080284,152
A,A     200117C00042500,2019-05-14,2020-01-17,42.5,C,A,33.5,35.25,34.375,0.0,0.0,0.0,,34.375,0.3907,,153
A,A     200117P00042500,2019-05-14,2020-01-17,42.5,P,A,0.27,0.35,0.31,0.0,0.0,21.0,0.3226660247455187,0.31,0.4143,0.41706564838773597,154
A,A     200117C00045000,2019-05-14,2020-01-17,45.0,C,A,31.1,32.7,31.9,0.0,0.0,0.0,,31.9,0.3526,,155
A,A     200117P00045000,2019-05-14,2020-01-17,45.0,P,A,0.34,0.49,0.415,0.0,0.0,7.0,0.41101546366130903,0.415,0.4023,0.40107294742100436,156
A,A     200117C00047500,2019-05-14,2020-01-17,47.5,C,A,28.65,30.45,29.55,0.0,0.0,0.0,,29.55,0.3485,,157
A,A     200117P00047500,2019-05-14,2020-01-17,47.5,P,A,0.47,0.56,0.515,0.0,0.0,2.0,0.5164547666297234,0.515,0.3851,0.3851326662554896,158
A,A     200117C00050000,2019-05-14,2020-01-17,50.0,C,A,26.25,28.0,27.125,0.0,0.0,1.0,,27.125,0.3235,,159
A,A     200117P00050000,2019-05-14,2020-01-17,50.0,P,A,0.64,0.72,0.68,0.0,0.0,30.0,0.677994594486016,0.68,0.3747,0.3742243069790188,160
A,A     200117C00055000,2019-05-14,2020-01-17,55.0,C,A,22.4,23.55,22.975,0.0,0.0,0.0,,22.975,0.3546,,161
A,A     200117P00055000,2019-05-14,2020-01-17,55.0,P,A,1.07,1.26,1.165,0.0,0.0,90.0,1.1651290474328324,1.165,0.357,0.35693144863341697,162
A,A     200117C00057500,2019-05-14,2020-01-17,57.5,C,A,20.35,20.9,20.625,0.0,0.0,0.0,20.611337030158918,20.625,0.3285,0.3350024197582793,163
A,A     200117P00057500,2019-05-14,2020-01-17,57.5,P,A,1.38,1.56,1.47,0.0,0.0,69.0,1.4439817011674487,1.47,0.3465,0.34452074551646517,164
A,A     200117C00060000,2019-05-14,2020-01-17,60.0,C,A,18.2,18.95,18.575,0.0,0.0,0.0,,18.575,0.3242,,165
A,A     200117P00060000,2019-05-14,2020-01-17,60.0,P,A,1.76,1.91,1.835,0.0,0.0,168.0,1.8458355604012355,1.835,0.3361,0.3371015089822801,166
A,A     200117C00062500,2019-05-14,2020-01-17,62.5,C,A,15.85,16.85,16.35,0.0,0.0,8.0,,16.35,0.3031,,167
A,A     200117P00062500,2019-05-14,2020-01-17,62.5,P,A,2.17,2.29,2.23,0.0,0.0,104.0,2.18913109550742,2.23,0.3236,0.3213304938085141,168
A,A     200117C00065000,2019-05-14,2020-01-17,65.0,C,A,14.2,14.85,14.525,0.0,0.0,31.0,,14.525,0.3029,,169
A,A     200117P00065000,2019-05-14,2020-01-17,65.0,P,A,2.73,2.83,2.78,0.0,20.0,186.0,2.7600759213925024,2.78,0.3159,0.31504277515823065,170
A,A     200117C00067500,2019-05-14,2020-01-17,67.5,C,A,12.5,13.1,12.8,0.0,0.0,22.0,,12.8,0.3011,,171
A,A     200117P00067500,2019-05-14,2020-01-17,67.5,P,A,3.35,3.5,3.425,0.0,2.0,103.0,3.3643803131259538,3.425,0.3078,0.30542296823127774,172
A,A     200117C00070000,2019-05-14,2020-01-17,70.0,C,A,10.8,11.4,11.1,0.0,0.0,30.0,,11.1,0.2948,,173
A,A     200117P00070000,2019-05-14,2020-01-17,70.0,P,A,4.15,4.25,4.2,0.0,2.0,170.0,4.148326305018696,4.2,0.3012,0.299568622460082,174
A,A     200117C00072500,2019-05-14,2020-01-17,72.5,C,A,9.45,9.7,9.575,0.0,1.0,267.0,,9.575,0.2909,,175
A,A     200117P00072500,2019-05-14,2020-01-17,72.5,P,A,5.0,5.1,5.05,0.0,1.0,2333.0,4.960797460268132,5.05,0.2927,0.28985704189913497,176
A,A     200117C00075000,2019-05-14,2020-01-17,75.0,C,A,8.0,8.3,8.15,0.0,0.0,41.0,,8.15,0.2856,,177
A,A     200117P00075000,2019-05-14,2020-01-17,75.0,P,A,6.0,6.1,6.05,0.0,1.0,482.0,5.957468495291382,6.05,0.2853,0.2829526310672905,178
A,A     200117C00077500,2019-05-14,2020-01-17,77.5,C,A,6.6,7.0,6.8,0.0,0.0,70.0,6.777124258123722,6.8,0.2785,0.2794587848464775,179
A,A     200117P00077500,2019-05-14,2020-01-17,77.5,P,A,7.1,7.35,7.225,0.0,1.0,161.0,7.089892185861666,7.225,0.28,0.27632506443543303,180
A,A     200117C00080000,2019-05-14,2020-01-17,80.0,C,A,5.45,5.7,5.575,0.0,0.0,165.0,5.567378212899816,5.575,0.2706,0.2721789301060299,181
A,A     200117P00080000,2019-05-14,2020-01-17,80.0,P,A,8.4,8.75,8.575,0.0,0.0,92.0,8.426459135795165,8.575,0.2758,0.27254492889383947,182
A,A     200117C00082500,2019-05-14,2020-01-17,82.5,C,A,4.45,4.7,4.575,0.0,0.0,192.0,4.554146492007633,4.575,0.2668,0.2674514568487076,183
A,A     200117P00082500,2019-05-14,2020-01-17,82.5,P,A,9.85,10.25,10.05,0.0,0.0,51.0,9.844987950747619,10.05,0.2714,0.266694172383168,184
A,A     200117C00085000,2019-05-14,2020-01-17,85.0,C,A,3.6,3.8,3.7,0.0,0.0,82.0,3.6967702841128194,3.7,0.2626,0.2638265254816492,185
A,A     200117P00085000,2019-05-14,2020-01-17,85.0,P,A,11.5,11.9,11.7,0.0,0.0,10.0,11.467392874140003,11.7,0.2687,0.26390600871881326,186
A,A     200117C00087500,2019-05-14,2020-01-17,87.5,C,A,2.86,3.05,2.955,0.0,0.0,31.0,2.9390233722429864,2.955,0.2587,0.2592115363042392,187
A,A     200117P00087500,2019-05-14,2020-01-17,87.5,P,A,13.2,13.75,13.475,0.0,0.0,17.0,13.168437912016207,13.475,0.2657,0.25926885528152804,188
A,A     200117C00090000,2019-05-14,2020-01-17,90.0,C,A,2.26,2.67,2.465,0.0,0.0,757.0,2.4580898399085735,2.465,0.2618,0.2623839181302003,189
A,A     200117P00090000,2019-05-14,2020-01-17,90.0,P,A,15.15,15.55,15.35,0.0,0.0,1.0,14.991796520002087,15.35,0.2621,0.2549108084454945,190
A,A     200117C00095000,2019-05-14,2020-01-17,95.0,C,A,1.38,1.75,1.565,0.0,0.0,333.0,1.5573227889643484,1.565,0.2587,0.259131145055645,191
A,A     200117P00095000,2019-05-14,2020-01-17,95.0,P,A,19.15,19.6,19.375,0.0,0.0,11.0,18.799508674553778,19.375,0.25,0.2368314296508628,192
A,A     200117C00100000,2019-05-14,2020-01-17,100.0,C,A,0.78,1.0,0.89,0.0,0.0,10.0,0.8877636399493449,0.89,0.2506,0.25106214920730274,193
A,A     200117P00100000,2019-05-14,2020-01-17,100.0,P,A,23.5,24.35,23.925,0.0,0.0,12.0,,23.925,0.2485,,194
A,A     200117C00105000,2019-05-14,2020-01-17,105.0,C,A,0.4,0.68,0.54,0.0,0.0,10.0,0.5387096689110737,0.54,0.2501,0.2505599036505794,195
A,A     200117P00105000,2019-05-14,2020-01-17,105.0,P,A,27.7,29.85,28.775,0.0,0.0,0.0,,28.775,0.2602,,196
A,A     200117C00110000,2019-05-14,2020-01-17,110.0,C,A,0.0,0.31,0.0,0.0,0.0,0.0,0.0,0.0,0.2501,0.001,197
A,A     200117P00110000,2019-05-14,2020-01-17,110.0,P,A,32.4,35.05,33.725,0.0,0.0,0.0,,33.725,0.2602,,198
A,A     200117C00115000,2019-05-14,2020-01-17,115.0,C,A,0.0,0.19,0.0,0.0,0.0,2.0,0.0,0.0,0.2501,0.001,199
A,A     200117P00115000,2019-05-14,2020-01-17,115.0,P,A,37.5,40.3,38.9,0.0,0.0,0.0,,38.9,0.2602,,200
A,A     210115C00032500,2019-05-14,2021-01-15,32.5,C,A,42.55,45.85,44.2,0.0,0.0,0.0,,44.2,0.41,,201
A,A     210115P00032500,2019-05-14,2021-01-15,32.5,P,A,0.37,0.63,0.5,0.0,0.0,41.0,0.49666357109683074,0.5,0.41,0.40674535261777445,202
A,A     210115C00035000,2019-05-14,2021-01-15,35.0,C,A,40.15,43.8,41.975,0.0,0.0,0.0,,41.975,0.3159,,203
A,A     210115P00035000,2019-05-14,2021-01-15,35.0,P,A,0.48,0.74,0.61,0.0,0.0,7.0,0.603386302488242,0.61,0.3952,0.39150254518777405,204
A,A     210115C00037500,2019-05-14,2021-01-15,37.5,C,A,38.05,41.3,39.675,0.0,0.0,0.0,,39.675,0.3136,,205
A,A     210115P00037500,2019-05-14,2021-01-15,37.5,P,A,0.62,0.94,0.78,0.0,0.0,27.0,0.7992852370923843,0.78,0.3861,0.3854628306248348,206
A,A     210115C00040000,2019-05-14,2021-01-15,40.0,C,A,36.4,39.3,37.85,0.0,0.0,2.0,,37.85,0.3653,,207
A,A     210115P00040000,2019-05-14,2021-01-15,40.0,P,A,0.82,1.04,0.93,0.0,0.0,2.0,0.9205140809274949,0.93,0.3724,0.3685773422017938,208
A,A     210115C00042500,2019-05-14,2021-01-15,42.5,C,A,33.85,36.75,35.3,0.0,0.0,6.0,,35.3,0.3214,,209
A,A     210115P00042500,2019-05-14,2021-01-15,42.5,P,A,1.04,1.27,1.155,0.0,0.0,72.0,1.1350840175457775,1.155,0.3637,0.3592230292820916,210
A,A     210115C00045000,2019-05-14,2021-01-15,45.0,C,A,31.6,34.2,32.9,0.0,0.0,0.0,,32.9,0.2954,,211
A,A     210115P00045000,2019-05-14,2021-01-15,45.0,P,A,1.3,1.53,1.415,0.0,0.0,2.0,1.4257389875853888,1.415,0.3553,0.3532218612574478,212
A,A     210115C00047500,2019-05-14,2021-01-15,47.5,C,A,29.85,32.1,30.975,0.0,0.0,0.0,,30.975,0.3105,,213
A,A     210115P00047500,2019-05-14,2021-01-15,47.5,P,A,1.56,1.89,1.725,0.0,0.0,0.0,1.6972282418210365,1.725,0.3476,0.3431656884471139,214
A,A     210115C00050000,2019-05-14,2021-01-15,50.0,C,A,28.3,30.0,29.15,0.0,0.0,0.0,,29.15,0.3218,,215
A,A     210115P00050000,2019-05-14,2021-01-15,50.0,P,A,1.9,2.21,2.055,0.0,0.0,50.0,2.0122516326889146,2.055,0.3388,0.3337953371404882,216
A,A     210115C00055000,2019-05-14,2021-01-15,55.0,C,A,24.7,26.6,25.65,0.0,0.0,0.0,,25.65,0.3317,,217
A,A     210115P00055000,2019-05-14,2021-01-15,55.0,P,A,2.65,3.0,2.825,0.0,0.0,21.0,2.7778320341305993,2.825,0.3208,0.3161413598353772,218
A,A     210115C00057500,2019-05-14,2021-01-15,57.5,C,A,22.75,23.85,23.3,0.0,0.0,0.0,,23.3,0.3054,,219
A,A     210115P00057500,2019-05-14,2021-01-15,57.5,P,A,3.25,3.6,3.425,0.0,0.0,21.0,3.346134602416283,3.425,0.3179,0.312257764010161,220
A,A     210115C00060000,2019-05-14,2021-01-15,60.0,C,A,20.7,22.55,21.625,0.0,0.0,7.0,,21.625,0.306,,221
A,A     210115P00060000,2019-05-14,2021-01-15,60.0,P,A,3.85,4.2,4.025,0.0,0.0,15.0,3.9827618329213355,4.025,0.3123,0.3083263946627081,222
A,A     210115C00062500,2019-05-14,2021-01-15,62.5,C,A,19.2,20.1,19.65,0.0,0.0,22.0,,19.65,0.2928,,223
A,A     210115P00062500,2019-05-14,2021-01-15,62.5,P,A,4.5,4.9,4.7,0.0,0.0,62.0,4.604566503845,4.7,0.3071,0.3014099831794643,224
A,A     210115C00065000,2019-05-14,2021-01-15,65.0,C,A,17.55,18.55,18.05,0.0,0.0,5.0,,18.05,0.2908,,225
A,A     210115P00065000,2019-05-14,2021-01-15,65.0,P,A,5.15,5.65,5.4,0.0,0.0,12.0,5.266715077003153,5.4,0.3004,0.29380391717134097,226
A,A     210115C00067500,2019-05-14,2021-01-15,67.5,C,A,16.0,16.7,16.35,0.0,0.0,5.0,,16.35,0.2831,,227
A,A     210115P00067500,2019-05-14,2021-01-15,67.5,P,A,6.05,6.5,6.275,0.0,0.0,13.0,6.173378043774751,6.275,0.2971,0.2917338762746818,228
A,A     210115C00070000,2019-05-14,2021-01-15,70.0,C,A,14.5,15.5,15.0,0.0,1.0,6.0,,15.0,0.2838,,229
A,A     210115P00070000,2019-05-14,2021-01-15,70.0,P,A,6.9,7.5,7.2,0.0,0.0,24.0,7.038365758815252,7.2,0.2928,0.2860122825200623,230
A,A     210115C00072500,2019-05-14,2021-01-15,72.5,C,A,12.95,13.8,13.375,0.0,0.0,19.0,,13.375,0.2742,,231
A,A     210115P00072500,2019-05-14,2021-01-15,72.5,P,A,7.85,8.45,8.15,0.0,0.0,117.0,7.934704950190125,8.15,0.2871,0.2791074457112892,232
A,A     210115C00075000,2019-05-14,2021-01-15,75.0,C,A,11.7,12.4,12.05,0.0,0.0,35.0,,12.05,0.2707,,233
A,A     210115P00075000,2019-05-14,2021-01-15,75.0,P,A,9.0,9.55,9.275,0.0,0.0,135.0,9.07703467056699,9.275,0.2838,0.2768368266860887,234
A,A     210115C00077500,2019-05-14,2021-01-15,77.5,C,A,10.5,11.15,10.825,0.0,0.0,11.0,10.81296585258978,10.825,0.2678,0.27391834964029255,235
A,A     210115P00077500,2019-05-14,2021-01-15,77.5,P,A,10.15,10.7,10.425,0.0,0.0,11.0,10.160962218811838,10.425,0.2789,0.2708131102840278,236
A,A     210115C00080000,2019-05-14,2021-01-15,80.0,C,A,9.45,9.95,9.7,0.0,0.0,23.0,9.649430367715768,9.7,0.2652,0.2699773873701939,237
A,A     210115P00080000,2019-05-14,2021-01-15,80.0,P,A,11.45,12.1,11.775,0.0,0.0,14.0,11.435728810223232,11.775,0.2769,0.2676859339403888,238
A,A     210115C00082500,2019-05-14,2021-01-15,82.5,C,A,8.3,9.05,8.675,0.0,0.0,28.0,8.67089436364179,8.675,0.2631,0.26872897824925496,239
A,A     210115P00082500,2019-05-14,2021-01-15,82.5,P,A,12.85,13.45,13.15,0.0,0.0,4.0,12.803000698764611,13.15,0.2734,0.26483414276177575,240
A,A     210115C00085000,2019-05-14,2021-01-15,85.0,C,A,7.35,8.0,7.675,0.0,0.0,91.0,7.677765227983183,7.675,0.2596,0.26506266813523666,241
A,A     210115P00085000,2019-05-14,2021-01-15,85.0,P,A,14.35,15.05,14.7,0.0,0.0,6.0,14.280525437871786,14.7,0.2722,0.2627607036667519,242
A,A     210115C00087500,2019-05-14,2021-01-15,87.5,C,A,6.5,7.1,6.8,0.0,0.0,59.0,6.75509601550965,6.8,0.2573,0.2612172292051902,243
A,A     210115P00087500,2019-05-14,2021-01-15,87.5,P,A,15.85,16.45,16.15,0.0,0.0,0.0,15.624054159552866,16.15,0.2662,0.25516534909535665,244
A,A     210115C00090000,2019-05-14,2021-01-15,90.0,C,A,5.75,6.25,6.0,0.0,10.0,23.0,5.98616465409771,6.0,0.255,0.25944812825892793,245
A,A     210115P00090000,2019-05-14,2021-01-15,90.0,P,A,17.6,18.35,17.975,0.0,0.0,6.0,17.404943664872242,17.975,0.2681,0.2570472055547819,246
A,A     210115C00095000,2019-05-14,2021-01-15,95.0,C,A,4.4,4.9,4.65,0.0,0.0,15.0,4.619431665872475,4.65,0.2517,0.25495933408592786,247
A,A     210115P00095000,2019-05-14,2021-01-15,95.0,P,A,21.1,22.05,21.575,0.0,0.0,0.0,20.783541839519714,21.575,0.2642,0.25037207118717536,248
A,A     210115C00100000,2019-05-14,2021-01-15,100.0,C,A,3.3,3.7,3.5,0.0,1.0,54.0,3.5451272808324745,3.5,0.2467,0.2517127528110426,249
A,A     210115P00100000,2019-05-14,2021-01-15,100.0,P,A,25.05,25.7,25.375,0.0,0.0,0.0,24.350846877927815,25.375,0.2566,0.2412018746061373,250
A,A     210115C00105000,2019-05-14,2021-01-15,105.0,C,A,2.44,2.96,2.7,0.0,0.0,0.0,2.6786867643587415,2.7,0.2456,0.24829856652824228,251
A,A     210115P00105000,2019-05-14,2021-01-15,105.0,P,A,29.05,29.9,29.475,0.0,0.0,0.0,28.062042195138513,29.475,0.2478,0.22768912080953985,252
A,A     210115C00110000,2019-05-14,2021-01-15,110.0,C,A,1.76,2.45,2.105,0.0,0.0,0.0,2.149048543578489,2.105,0.2461,0.2509085878208193,253
A,A     210115P00110000,2019-05-14,2021-01-15,110.0,P,A,32.6,36.15,34.375,0.0,0.0,1.0,32.75899402011701,34.375,0.2674,0.24439204313819313,254
A,A     210115C00115000,2019-05-14,2021-01-15,115.0,C,A,1.26,1.62,1.44,0.0,0.0,0.0,1.438383954478855,1.44,0.2376,0.24037417429775948,255
A,A     210115P00115000,2019-05-14,2021-01-15,115.0,P,A,36.55,40.8,38.675,0.0,0.0,0.0,,38.675,0.2376,,256
A,A     210115C00120000,2019-05-14,2021-01-15,120.0,C,A,0.88,1.43,1.155,0.0,0.0,5.0,1.182948117643421,1.155,0.2408,0.2450070849960399,257
A,A     210115P00120000,2019-05-14,2021-01-15,120.0,P,A,42.0,45.9,43.95,0.0,0.0,0.0,,43.95,0.2851,,258
